<svg width="28" height="16" viewBox="0 0 28 16" fill="none" xmlns="http://www.w3.org/2000/svg">
<path d="M0.758545 14.8103V12.9138L1.4482 11.7069L11.9654 1.18965L13.1723 0.5H15.5861L16.793 1.18965L27.3103 11.7069L27.9999 12.9138V14.8103L27.4827 15.5H26.2758L15.0689 4.2931H13.862L2.6551 15.5H1.4482L0.758545 14.8103Z"/>
</svg>
