<?xml version="1.0" encoding="utf-8"?>
<!-- Generator: Adobe Illustrator 21.0.2, SVG Export Plug-In . SVG Version: 6.00 Build 0)  -->
<svg version="1.1" id="Слой_1" xmlns="http://www.w3.org/2000/svg" xmlns:xlink="http://www.w3.org/1999/xlink" x="0px" y="0px"
	 viewBox="0 0 8 17.1" style="enable-background:new 0 0 8 17.1;" xml:space="preserve">
<path d="M7.8,13.3L8,13v-1.3l-0.2-0.2H7.7l-2.9,2.9H4.6V0.1L4.4,0H3.6L3.4,0.1v14.3H3.2l-2.9-2.9H0.2L0,11.7V13l0.2,0.3l3.6,3.8h0.4
	L7.8,13.3z"/>
</svg>
