<svg viewBox="0 0 14 14" fill="none" xmlns="http://www.w3.org/2000/svg">
<path d="M13.3282 1.39971L12.5645 0.636037L12.0554 0.636038L7.21881 5.47265H6.70969L1.87308 0.636038L1.36396 0.636039L0.600286 1.39971L0.600286 1.90883L5.4369 6.74544V7.25456L0.600286 12.0912L0.600285 12.6003L1.36396 13.364L1.87308 13.364L6.70969 8.52735H7.21881L12.0554 13.364L12.5645 13.364L13.3282 12.6003V12.0912L8.4916 7.25456V6.74544L13.3282 1.90883L13.3282 1.39971Z" />
</svg>
