<svg width="256" height="256" xmlns="http://www.w3.org/2000/svg" xml:space="preserve" style="enable-background:new 0 0 256 256" viewBox="0 0 256 256">
  <path d="M128 0C57.3 0 0 57.3 0 128s57.3 128 128 128 128-57.3 128-128S198.7 0 128 0zm0 240c-61.9 0-112-50.1-112-112S66.1 16 128 16s112 50.1 112 112-50.1 112-112 112zM99.9 64l91.1 58.3v12.9L99.9 192H87.5l-2.5-2.6V66.6l2.5-2.6h12.4z"/>
</svg>
