<svg id="Ebene_1" data-name="Ebene 1" xmlns="http://www.w3.org/2000/svg" viewBox="0 0 13.23 13.76">
  <title>thoerey</title>
  <path fill="#FF0000" d="M6.61,13.76c-4,0-6.61-2.65-6.61-6.88S2.65,0,6.61,0s6.62,2.65,6.62,6.88S10.58,13.76,6.61,13.76Zm0-10.59C4.76,3.17,3.7,4.5,3.7,6.88s1.06,3.7,2.91,3.7,2.91-1.32,2.91-3.7S8.47,3.17,6.61,3.17Z"/>
</svg>
