<svg width="16" height="10" viewBox="0 0 16 10" fill="none" xmlns="http://www.w3.org/2000/svg">
<path d="M0 1.04844V2.14844L0.4 2.84844L6.5 8.94844L7.2 9.34844H8.6L9.3 8.94844L15.4 2.84844L15.8 2.14844V1.04844L15.5 0.648438H14.8L8.3 7.14844H7.6L1.1 0.648438H0.4L0 1.04844Z" fill="#FF0000"/>
</svg>
